^D:\PROJECTS\GRAPHICS-PROGRAMMING\CT6025_ASSIGNMENT_ABBASKHAN\DEPS\GLAD\SRC\GLAD.C
D:\PROJECTS\GRAPHICS-PROGRAMMING\CT6025_ASSIGNMENT_ABBASKHAN\FRAMEWORK\OBJ\FRAMEWORK.PDB
D:\PROJECTS\GRAPHICS-PROGRAMMING\CT6025_ASSIGNMENT_ABBASKHAN\FRAMEWORK\OBJ\FRAMEWORK.IDB
D:\PROJECTS\GRAPHICS-PROGRAMMING\CT6025_ASSIGNMENT_ABBASKHAN\FRAMEWORK\OBJ\GLAD.OBJ
^D:\PROJECTS\GRAPHICS-PROGRAMMING\CT6025_ASSIGNMENT_ABBASKHAN\DEPS\IMGUI\IMPL\IMGUI_IMPL_GLFW.CPP|D:\PROJECTS\GRAPHICS-PROGRAMMING\CT6025_ASSIGNMENT_ABBASKHAN\DEPS\IMGUI\IMPL\IMGUI_IMPL_OPENGL3.CPP|D:\PROJECTS\GRAPHICS-PROGRAMMING\CT6025_ASSIGNMENT_ABBASKHAN\FRAMEWORK\SRC\APPLICATION.CPP|D:\PROJECTS\GRAPHICS-PROGRAMMING\CT6025_ASSIGNMENT_ABBASKHAN\FRAMEWORK\SRC\APPLICATION_LOG.CPP|D:\PROJECTS\GRAPHICS-PROGRAMMING\CT6025_ASSIGNMENT_ABBASKHAN\FRAMEWORK\SRC\ERROR.CPP|D:\PROJECTS\GRAPHICS-PROGRAMMING\CT6025_ASSIGNMENT_ABBASKHAN\FRAMEWORK\SRC\GIZMOS.CPP|D:\PROJECTS\GRAPHICS-PROGRAMMING\CT6025_ASSIGNMENT_ABBASKHAN\FRAMEWORK\SRC\UTILITIES.CPP
D:\PROJECTS\GRAPHICS-PROGRAMMING\CT6025_ASSIGNMENT_ABBASKHAN\FRAMEWORK\OBJ\FRAMEWORK.PDB
D:\PROJECTS\GRAPHICS-PROGRAMMING\CT6025_ASSIGNMENT_ABBASKHAN\FRAMEWORK\OBJ\FRAMEWORK.IDB
D:\PROJECTS\GRAPHICS-PROGRAMMING\CT6025_ASSIGNMENT_ABBASKHAN\FRAMEWORK\OBJ\UTILITIES.OBJ
D:\PROJECTS\GRAPHICS-PROGRAMMING\CT6025_ASSIGNMENT_ABBASKHAN\FRAMEWORK\OBJ\GIZMOS.OBJ
D:\PROJECTS\GRAPHICS-PROGRAMMING\CT6025_ASSIGNMENT_ABBASKHAN\FRAMEWORK\OBJ\ERROR.OBJ
D:\PROJECTS\GRAPHICS-PROGRAMMING\CT6025_ASSIGNMENT_ABBASKHAN\FRAMEWORK\OBJ\APPLICATION_LOG.OBJ
D:\PROJECTS\GRAPHICS-PROGRAMMING\CT6025_ASSIGNMENT_ABBASKHAN\FRAMEWORK\OBJ\APPLICATION.OBJ
D:\PROJECTS\GRAPHICS-PROGRAMMING\CT6025_ASSIGNMENT_ABBASKHAN\FRAMEWORK\OBJ\IMGUI_IMPL_OPENGL3.OBJ
D:\PROJECTS\GRAPHICS-PROGRAMMING\CT6025_ASSIGNMENT_ABBASKHAN\FRAMEWORK\OBJ\IMGUI_IMPL_GLFW.OBJ
^D:\PROJECTS\GRAPHICS-PROGRAMMING\CT6025_ASSIGNMENT_ABBASKHAN\DEPS\IMGUI\IMPL\IMGUI_IMPL_GLFW.CPP
D:\PROJECTS\GRAPHICS-PROGRAMMING\CT6025_ASSIGNMENT_ABBASKHAN\FRAMEWORK\OBJ\FRAMEWORK.PDB
^D:\PROJECTS\GRAPHICS-PROGRAMMING\CT6025_ASSIGNMENT_ABBASKHAN\DEPS\IMGUI\IMPL\IMGUI_IMPL_OPENGL3.CPP
D:\PROJECTS\GRAPHICS-PROGRAMMING\CT6025_ASSIGNMENT_ABBASKHAN\FRAMEWORK\OBJ\FRAMEWORK.PDB
^D:\PROJECTS\GRAPHICS-PROGRAMMING\CT6025_ASSIGNMENT_ABBASKHAN\FRAMEWORK\SRC\APPLICATION.CPP
D:\PROJECTS\GRAPHICS-PROGRAMMING\CT6025_ASSIGNMENT_ABBASKHAN\FRAMEWORK\OBJ\FRAMEWORK.PDB
^D:\PROJECTS\GRAPHICS-PROGRAMMING\CT6025_ASSIGNMENT_ABBASKHAN\FRAMEWORK\SRC\APPLICATION_LOG.CPP
D:\PROJECTS\GRAPHICS-PROGRAMMING\CT6025_ASSIGNMENT_ABBASKHAN\FRAMEWORK\OBJ\FRAMEWORK.PDB
^D:\PROJECTS\GRAPHICS-PROGRAMMING\CT6025_ASSIGNMENT_ABBASKHAN\FRAMEWORK\SRC\ERROR.CPP
D:\PROJECTS\GRAPHICS-PROGRAMMING\CT6025_ASSIGNMENT_ABBASKHAN\FRAMEWORK\OBJ\FRAMEWORK.PDB
^D:\PROJECTS\GRAPHICS-PROGRAMMING\CT6025_ASSIGNMENT_ABBASKHAN\FRAMEWORK\SRC\GIZMOS.CPP
D:\PROJECTS\GRAPHICS-PROGRAMMING\CT6025_ASSIGNMENT_ABBASKHAN\FRAMEWORK\OBJ\FRAMEWORK.PDB
^D:\PROJECTS\GRAPHICS-PROGRAMMING\CT6025_ASSIGNMENT_ABBASKHAN\FRAMEWORK\SRC\UTILITIES.CPP
D:\PROJECTS\GRAPHICS-PROGRAMMING\CT6025_ASSIGNMENT_ABBASKHAN\FRAMEWORK\OBJ\FRAMEWORK.PDB
